{
    "_comment" : "Comment section",
    "name" : "Level X",
    "Map" :{
        "build" :[[0,0], [0,0]],
        "startPosition" :{
            "xPosition" : 0,
            "yPosition" : 0
        },
        "endPosition" : {
            "xPosition" : 0,
            "yPosition" : 0,
            "width" : 0,
            "height" : 0
        }
    }
}